[
  {
    "_id": "60ff55ab20302313b6fd9821",
    "name": "chicken",
    "price": 0.32,
    "isAvailable": true,
    "inventory": 12
  },
  {
    "_id": "60ff55ab20302313b6fd9822",
    "name": "bacon",
    "price": 0.45,
    "isAvailable": true,
    "inventory": 27
  },
  {
    "_id": "60ff55ab20302313b6fd9823",
    "name": "jam",
    "price": 0.39,
    "isAvailable": true,
    "inventory": 21
  },
  {
    "_id": "60ff55ab20302313b6fd9824",
    "name": "pepperoni",
    "price": 0.34,
    "isAvailable": true,
    "inventory": 2
  },
  {
    "_id": "60ff55ab20302313b6fd9825",
    "name": "corn",
    "price": 0.28,
    "isAvailable": true,
    "inventory": 14
  },
  {
    "_id": "60ff55ab20302313b6fd9826",
    "name": "pineapple",
    "price": 0.31,
    "isAvailable": false,
    "inventory": 0
  },
  {
    "_id": "60ff55ab20302313b6fd9827",
    "name": "tomato",
    "price": 0.36,
    "isAvailable": true,
    "inventory": 1
  }
]
