[
  {
    "_id": "60ff592a20302313b6fd9828",
    "name": "The simple one",
    "baseIngredients": [
      {
        "ingredientId": "60ff55ab20302313b6fd9823",
        "name": "jam"
      }
    ],
    "basePrice": 2.12,
    "cheeseBorder": false
  },
  {
    "_id": "60ff592a20302313b6fd9829",
    "name": "The simple one Premium",
    "baseIngredients": [
      {
        "ingredientId": "60ff55ab20302313b6fd9823",
        "name": "jam"
      }
    ],
    "basePrice": 3.12,
    "cheeseBorder": true
  },
  {
    "_id": "60ff592a20302313b6fd982a",
    "name": "Even with rocks",
    "baseIngredients": [
      {
        "ingredientId": "60ff55ab20302313b6fd9821",
        "name": "chicken"
      },
      {
        "ingredientId": "60ff55ab20302313b6fd9822",
        "name": "bacon"
      },
      {
        "ingredientId": "60ff55ab20302313b6fd9823",
        "name": "jam"
      },
      {
        "ingredientId": "60ff55ab20302313b6fd9824",
        "name": "pepperoni"
      },
      {
        "ingredientId": "60ff55ab20302313b6fd9825",
        "name": "corn"
      },
      {
        "ingredientId": "60ff55ab20302313b6fd9826",
        "name": "pineapple"
      },
      {
        "ingredientId": "60ff55ab20302313b6fd9827",
        "name": "tomato"
      }
    ],
    "basePrice": 5.18,
    "cheeseBorder": true
  }
]
